%!PS-Adobe-3.0 EPSF-3.0
%%Creator: MATLAB, The MathWorks, Inc. Version 8.2.0.701 (R2013b). Operating System: Darwin 13.1.0 Darwin Kernel Version 13.1.0: Wed Apr  2 23:52:02 PDT 2014; root:xnu-2422.92.1~2/RELEASE_X86_64 x86_64.
%%Title: /Users/Junior/research/bioimpedancelab/labtests/Testrun.eps
%%CreationDate: 05/27/2014  12:16:47
%%DocumentNeededFonts: Helvetica
%%+ Times-Roman
%%DocumentProcessColors: Cyan Magenta Yellow Black
%%LanguageLevel: 2
%%Pages: 1
%%BoundingBox:   -27   188   641   603
%%EndComments

%%BeginProlog
% MathWorks dictionary
/MathWorks 160 dict begin
% definition operators
/bdef {bind def} bind def
/ldef {load def} bind def
/xdef {exch def} bdef
/xstore {exch store} bdef
% operator abbreviations
/c  /clip ldef
/cc /concat ldef
/cp /closepath ldef
/gr /grestore ldef
/gs /gsave ldef
/mt /moveto ldef
/np /newpath ldef
/cm /currentmatrix ldef
/sm /setmatrix ldef
/rm /rmoveto ldef
/rl /rlineto ldef
/s {show newpath} bdef
/sc {setcmykcolor} bdef
/sr /setrgbcolor ldef
/sg /setgray ldef
/w /setlinewidth ldef
/j /setlinejoin ldef
/cap /setlinecap ldef
/rc {rectclip} bdef
/rf {rectfill} bdef
% page state control
/pgsv () def
/bpage {/pgsv save def} bdef
/epage {pgsv restore} bdef
/bplot /gsave ldef
/eplot {stroke grestore} bdef
% orientation switch
/portraitMode 0 def /landscapeMode 1 def /rotateMode 2 def
% coordinate system mappings
/dpi2point 0 def
% font control
/FontSize 0 def
/FMS {/FontSize xstore findfont [FontSize 0 0 FontSize neg 0 0]
  makefont setfont} bdef
/reencode {exch dup where {pop load} {pop StandardEncoding} ifelse
  exch dup 3 1 roll findfont dup length dict begin
  { 1 index /FID ne {def}{pop pop} ifelse } forall
  /Encoding exch def currentdict end definefont pop} bdef
/isroman {findfont /CharStrings get /Agrave known} bdef
/FMSR {3 1 roll 1 index dup isroman {reencode} {pop pop} ifelse
  exch FMS} bdef
/csm {1 dpi2point div -1 dpi2point div scale neg translate
 dup landscapeMode eq {pop -90 rotate}
  {rotateMode eq {90 rotate} if} ifelse} bdef
% line types: solid, dotted, dashed, dotdash
/SO { [] 0 setdash } bdef
/DO { [.5 dpi2point mul 4 dpi2point mul] 0 setdash } bdef
/DA { [6 dpi2point mul] 0 setdash } bdef
/DD { [.5 dpi2point mul 4 dpi2point mul 6 dpi2point mul 4
  dpi2point mul] 0 setdash } bdef
% macros for lines and objects
/L {lineto stroke} bdef
/MP {3 1 roll moveto 1 sub {rlineto} repeat} bdef
/AP {{rlineto} repeat} bdef
/PDlw -1 def
/W {/PDlw currentlinewidth def setlinewidth} def
/PP {closepath eofill} bdef
/DP {closepath stroke} bdef
/MR {4 -2 roll moveto dup  0 exch rlineto exch 0 rlineto
  neg 0 exch rlineto closepath} bdef
/FR {MR stroke} bdef
/PR {MR fill} bdef
/L1i {{currentfile picstr readhexstring pop} image} bdef
/tMatrix matrix def
/MakeOval {newpath tMatrix currentmatrix pop translate scale
0 0 1 0 360 arc tMatrix setmatrix} bdef
/FO {MakeOval stroke} bdef
/PO {MakeOval fill} bdef
/PD {currentlinewidth 2 div 0 360 arc fill
   PDlw -1 eq not {PDlw w /PDlw -1 def} if} def
/FA {newpath tMatrix currentmatrix pop translate scale
  0 0 1 5 -2 roll arc tMatrix setmatrix stroke} bdef
/PA {newpath tMatrix currentmatrix pop	translate 0 0 moveto scale
  0 0 1 5 -2 roll arc closepath tMatrix setmatrix fill} bdef
/FAn {newpath tMatrix currentmatrix pop translate scale
  0 0 1 5 -2 roll arcn tMatrix setmatrix stroke} bdef
/PAn {newpath tMatrix currentmatrix pop translate 0 0 moveto scale
  0 0 1 5 -2 roll arcn closepath tMatrix setmatrix fill} bdef
/vradius 0 def /hradius 0 def /lry 0 def
/lrx 0 def /uly 0 def /ulx 0 def /rad 0 def
/MRR {/vradius xdef /hradius xdef /lry xdef /lrx xdef /uly xdef
  /ulx xdef newpath tMatrix currentmatrix pop ulx hradius add uly
  vradius add translate hradius vradius scale 0 0 1 180 270 arc 
  tMatrix setmatrix lrx hradius sub uly vradius add translate
  hradius vradius scale 0 0 1 270 360 arc tMatrix setmatrix
  lrx hradius sub lry vradius sub translate hradius vradius scale
  0 0 1 0 90 arc tMatrix setmatrix ulx hradius add lry vradius sub
  translate hradius vradius scale 0 0 1 90 180 arc tMatrix setmatrix
  closepath} bdef
/FRR {MRR stroke } bdef
/PRR {MRR fill } bdef
/MlrRR {/lry xdef /lrx xdef /uly xdef /ulx xdef /rad lry uly sub 2 div def
  newpath tMatrix currentmatrix pop ulx rad add uly rad add translate
  rad rad scale 0 0 1 90 270 arc tMatrix setmatrix lrx rad sub lry rad
  sub translate rad rad scale 0 0 1 270 90 arc tMatrix setmatrix
  closepath} bdef
/FlrRR {MlrRR stroke } bdef
/PlrRR {MlrRR fill } bdef
/MtbRR {/lry xdef /lrx xdef /uly xdef /ulx xdef /rad lrx ulx sub 2 div def
  newpath tMatrix currentmatrix pop ulx rad add uly rad add translate
  rad rad scale 0 0 1 180 360 arc tMatrix setmatrix lrx rad sub lry rad
  sub translate rad rad scale 0 0 1 0 180 arc tMatrix setmatrix
  closepath} bdef
/FtbRR {MtbRR stroke } bdef
/PtbRR {MtbRR fill } bdef
/stri 6 array def /dtri 6 array def
/smat 6 array def /dmat 6 array def
/tmat1 6 array def /tmat2 6 array def /dif 3 array def
/asub {/ind2 exch def /ind1 exch def dup dup
  ind1 get exch ind2 get sub exch } bdef
/tri_to_matrix {
  2 0 asub 3 1 asub 4 0 asub 5 1 asub
  dup 0 get exch 1 get 7 -1 roll astore } bdef
/compute_transform {
  dmat dtri tri_to_matrix tmat1 invertmatrix 
  smat stri tri_to_matrix tmat2 concatmatrix } bdef
/ds {stri astore pop} bdef
/dt {dtri astore pop} bdef
/db {2 copy /cols xdef /rows xdef mul dup 3 mul string
  currentfile 
  3 index 0 eq {/ASCIIHexDecode filter}
  {/ASCII85Decode filter 3 index 2 eq {/RunLengthDecode filter} if }
  ifelse exch readstring pop
  dup 0 3 index getinterval /rbmap xdef
  dup 2 index dup getinterval /gbmap xdef
  1 index dup 2 mul exch getinterval /bbmap xdef pop pop}bdef
/it {gs np dtri aload pop moveto lineto lineto cp c
  cols rows 8 compute_transform 
  rbmap gbmap bbmap true 3 colorimage gr}bdef
/il {newpath moveto lineto stroke}bdef
currentdict end def
%%EndProlog

%%BeginSetup
MathWorks begin

0 cap

end
%%EndSetup

%%Page: 1 1
%%BeginPageSetup
%%PageBoundingBox:   -27   188   641   603
MathWorks begin
bpage
%%EndPageSetup

%%BeginObject: obj1
bplot

/dpi2point 12 def
portraitMode -0324 7236 csm

    0     0  8026  4980 rc
85 dict begin %Colortable dictionary
/c0 { 0.000000 0.000000 0.000000 sr} bdef
/c1 { 1.000000 1.000000 1.000000 sr} bdef
/c2 { 0.900000 0.000000 0.000000 sr} bdef
/c3 { 0.000000 0.820000 0.000000 sr} bdef
/c4 { 0.000000 0.000000 0.800000 sr} bdef
/c5 { 0.910000 0.820000 0.320000 sr} bdef
/c6 { 1.000000 0.260000 0.820000 sr} bdef
/c7 { 0.000000 0.820000 0.820000 sr} bdef
c0
1 j
1 sg
   0    0 8027 4981 rf
6 w
0 4058 6221 0 0 -4058 1043 4432 4 MP
PP
-6221 0 0 4058 6221 0 0 -4058 1043 4432 5 MP stroke
4 w
DO
0 sg
1608 4432 mt 1608  374 L
1608  374 mt 1608  374 L
2236 4432 mt 2236  374 L
2236  374 mt 2236  374 L
2865 4432 mt 2865  374 L
2865  374 mt 2865  374 L
3493 4432 mt 3493  374 L
3493  374 mt 3493  374 L
4122 4432 mt 4122  374 L
4122  374 mt 4122  374 L
4750 4432 mt 4750  374 L
4750  374 mt 4750  374 L
5378 4432 mt 5378  374 L
5378  374 mt 5378  374 L
6007 4432 mt 6007  374 L
6007  374 mt 6007  374 L
6635 4432 mt 6635  374 L
6635  374 mt 6635  374 L
7264 4432 mt 7264  374 L
7264  374 mt 7264  374 L
1043 4432 mt 7264 4432 L
7264 4432 mt 7264 4432 L
1043 3707 mt 7264 3707 L
7264 3707 mt 7264 3707 L
1043 2982 mt 7264 2982 L
7264 2982 mt 7264 2982 L
1043 2258 mt 7264 2258 L
7264 2258 mt 7264 2258 L
1043 1533 mt 7264 1533 L
7264 1533 mt 7264 1533 L
1043  808 mt 7264  808 L
7264  808 mt 7264  808 L
SO
6 w
1043 4432 mt 7264 4432 L
1043  374 mt 7264  374 L
1043 4432 mt 1043  374 L
7264 4432 mt 7264  374 L
1043 4432 mt 7264 4432 L
1043 4432 mt 1043  374 L
1608 4432 mt 1608 4369 L
1608  374 mt 1608  436 L
%%IncludeResource: font Times-Roman
/Times-Roman /ISOLatin1Encoding 168 FMSR

1524 4616 mt 
(10) s
2236 4432 mt 2236 4369 L
2236  374 mt 2236  436 L
2152 4616 mt 
(20) s
2865 4432 mt 2865 4369 L
2865  374 mt 2865  436 L
2781 4616 mt 
(30) s
3493 4432 mt 3493 4369 L
3493  374 mt 3493  436 L
3409 4616 mt 
(40) s
4122 4432 mt 4122 4369 L
4122  374 mt 4122  436 L
4038 4616 mt 
(50) s
4750 4432 mt 4750 4369 L
4750  374 mt 4750  436 L
4666 4616 mt 
(60) s
5378 4432 mt 5378 4369 L
5378  374 mt 5378  436 L
5294 4616 mt 
(70) s
6007 4432 mt 6007 4369 L
6007  374 mt 6007  436 L
5923 4616 mt 
(80) s
6635 4432 mt 6635 4369 L
6635  374 mt 6635  436 L
6551 4616 mt 
(90) s
7264 4432 mt 7264 4369 L
7264  374 mt 7264  436 L
7138 4616 mt 
(100) s
1043 4432 mt 1105 4432 L
7264 4432 mt 7201 4432 L
 924 4492 mt 
(0) s
1043 4287 mt 1074 4287 L
7264 4287 mt 7232 4287 L
1043 4142 mt 1074 4142 L
7264 4142 mt 7232 4142 L
1043 3997 mt 1074 3997 L
7264 3997 mt 7232 3997 L
1043 3852 mt 1074 3852 L
7264 3852 mt 7232 3852 L
1043 3707 mt 1074 3707 L
7264 3707 mt 7232 3707 L
1043 3707 mt 1074 3707 L
7264 3707 mt 7232 3707 L
1043 3707 mt 1074 3707 L
7264 3707 mt 7232 3707 L
1043 3707 mt 1074 3707 L
7264 3707 mt 7232 3707 L
1043 3707 mt 1074 3707 L
7264 3707 mt 7232 3707 L
1043 3707 mt 1105 3707 L
7264 3707 mt 7201 3707 L
 924 3767 mt 
(5) s
1043 3562 mt 1074 3562 L
7264 3562 mt 7232 3562 L
1043 3417 mt 1074 3417 L
7264 3417 mt 7232 3417 L
1043 3272 mt 1074 3272 L
7264 3272 mt 7232 3272 L
1043 3127 mt 1074 3127 L
7264 3127 mt 7232 3127 L
1043 2982 mt 1074 2982 L
7264 2982 mt 7232 2982 L
1043 2982 mt 1074 2982 L
7264 2982 mt 7232 2982 L
1043 2982 mt 1074 2982 L
7264 2982 mt 7232 2982 L
1043 2982 mt 1074 2982 L
7264 2982 mt 7232 2982 L
1043 2982 mt 1074 2982 L
7264 2982 mt 7232 2982 L
1043 2982 mt 1105 2982 L
7264 2982 mt 7201 2982 L
 840 3042 mt 
(10) s
1043 2837 mt 1074 2837 L
7264 2837 mt 7232 2837 L
1043 2692 mt 1074 2692 L
7264 2692 mt 7232 2692 L
1043 2547 mt 1074 2547 L
7264 2547 mt 7232 2547 L
1043 2403 mt 1074 2403 L
7264 2403 mt 7232 2403 L
1043 2258 mt 1074 2258 L
7264 2258 mt 7232 2258 L
1043 2258 mt 1074 2258 L
7264 2258 mt 7232 2258 L
1043 2258 mt 1074 2258 L
7264 2258 mt 7232 2258 L
1043 2258 mt 1074 2258 L
7264 2258 mt 7232 2258 L
1043 2258 mt 1074 2258 L
7264 2258 mt 7232 2258 L
1043 2258 mt 1105 2258 L
7264 2258 mt 7201 2258 L
 840 2318 mt 
(15) s
1043 2113 mt 1074 2113 L
7264 2113 mt 7232 2113 L
1043 1968 mt 1074 1968 L
7264 1968 mt 7232 1968 L
1043 1823 mt 1074 1823 L
7264 1823 mt 7232 1823 L
1043 1678 mt 1074 1678 L
7264 1678 mt 7232 1678 L
1043 1533 mt 1074 1533 L
7264 1533 mt 7232 1533 L
1043 1533 mt 1074 1533 L
7264 1533 mt 7232 1533 L
1043 1533 mt 1074 1533 L
7264 1533 mt 7232 1533 L
1043 1533 mt 1074 1533 L
7264 1533 mt 7232 1533 L
1043 1533 mt 1074 1533 L
7264 1533 mt 7232 1533 L
1043 1533 mt 1105 1533 L
7264 1533 mt 7201 1533 L
 840 1593 mt 
(20) s
1043 1388 mt 1074 1388 L
7264 1388 mt 7232 1388 L
1043 1243 mt 1074 1243 L
7264 1243 mt 7232 1243 L
1043 1098 mt 1074 1098 L
7264 1098 mt 7232 1098 L
1043  953 mt 1074  953 L
7264  953 mt 7232  953 L
1043  808 mt 1074  808 L
7264  808 mt 7232  808 L
1043  808 mt 1074  808 L
7264  808 mt 7232  808 L
1043  808 mt 1074  808 L
7264  808 mt 7232  808 L
1043  808 mt 1074  808 L
7264  808 mt 7232  808 L
1043  808 mt 1074  808 L
7264  808 mt 7232  808 L
1043  808 mt 1105  808 L
7264  808 mt 7201  808 L
 840  868 mt 
(25) s
1043  663 mt 1074  663 L
7264  663 mt 7232  663 L
1043  518 mt 1074  518 L
7264  518 mt 7232  518 L
1043  374 mt 1074  374 L
7264  374 mt 7232  374 L
1043 4432 mt 7264 4432 L
1043  374 mt 7264  374 L
1043 4432 mt 1043  374 L
7264 4432 mt 7264  374 L
gs 1043 374 6222 4059 rc
DO
/c8 { 0.000000 0.000000 1.000000 sr} bdef
c8
1 0 1293 97 1026 129 816 125 648 127 514 161 409 174 325 172 
257 190 205 177 163 182 129 175 103 154 81 145 65 126 52 118 
40 109 33 95 26 100 20 93 16 91 1043 796 22 MP stroke
gr

c8
DO
SO
  36   36 1059  887 PO
  36   36 1079  980 PO
  36   36 1105 1080 PO
  36   36 1138 1175 PO
  36   36 1178 1284 PO
  36   36 1230 1402 PO
  36   36 1295 1528 PO
  36   36 1376 1673 PO
  36   36 1479 1827 PO
  36   36 1608 2002 PO
  36   36 1771 2184 PO
  36   36 1976 2361 PO
  36   36 2233 2551 PO
  36   36 2558 2723 PO
  36   36 2967 2897 PO
  36   36 3481 3058 PO
  36   36 4129 3185 PO
  36   36 4945 3310 PO
  36   36 5971 3439 PO
  36   36 7264 3536 PO
0 sg
  36   36 1059  887 FO
  36   36 1079  980 FO
  36   36 1105 1080 FO
  36   36 1138 1175 FO
  36   36 1178 1284 FO
  36   36 1230 1402 FO
  36   36 1295 1528 FO
  36   36 1376 1673 FO
  36   36 1479 1827 FO
  36   36 1608 2002 FO
  36   36 1771 2184 FO
  36   36 1976 2361 FO
  36   36 2233 2551 FO
  36   36 2558 2723 FO
  36   36 2967 2897 FO
  36   36 3481 3058 FO
  36   36 4129 3185 FO
  36   36 4945 3310 FO
  36   36 5971 3439 FO
  36   36 7264 3536 FO
DO
gs 1043 374 6222 4059 rc
SO
24 w
/c9 { 1.000000 0.000000 0.000000 sr} bdef
c9
63 9 63 6 63 3 63 16 63 -8 63 -8 62 2 63 8 
63 -7 63 2 63 5 63 8 62 17 63 17 63 13 63 5 
63 10 63 6 62 15 63 12 63 7 63 8 63 12 63 3 
62 24 63 2 63 -22 63 -22 63 5 63 10 62 1 63 5 
63 -10 63 -10 63 -25 63 5 63 13 62 1 63 1 63 8 
63 10 63 15 63 27 62 15 63 5 63 9 63 11 63 9 
63 9 62 12 63 13 63 13 63 16 63 16 63 18 62 19 
63 17 63 14 63 17 63 15 63 18 62 14 63 19 63 22 
63 19 63 26 63 24 63 30 62 21 63 39 63 27 63 -6 
63 6 63 28 62 44 63 54 63 61 63 35 63 50 63 50 
62 86 63 86 63 88 63 78 63 79 63 123 62 68 63 100 
63 76 63 86 63 95 63 71 62 96 63 155 63 192 63 184 
63 322 63 73 62 -1287 1043 2040 100 MP stroke
gr

24 w
c9
SO
0 sg
3582 4784 mt 
(Frequency \(kHz\)) s
 749 3092 mt  -90 rotate
(Impedance \(kOhms\)) s
90 rotate
%%IncludeResource: font Helvetica
/Helvetica /ISOLatin1Encoding 120 FMSR

1026 4475 mt 
( ) s
7248  416 mt 
( ) s
6 w
1 sg
0 558 2027 0 0 -558 5162 1230 4 MP
PP
-2027 0 0 558 2027 0 0 -558 5162 1230 5 MP stroke
4 w
DO
SO
6 w
0 sg
5162 1230 mt 7189 1230 L
5162  672 mt 7189  672 L
5162 1230 mt 5162  672 L
7189 1230 mt 7189  672 L
5162 1230 mt 7189 1230 L
5162 1230 mt 5162  672 L
5162 1230 mt 7189 1230 L
5162  672 mt 7189  672 L
5162 1230 mt 5162  672 L
7189 1230 mt 7189  672 L
%%IncludeResource: font Times-Roman
/Times-Roman /ISOLatin1Encoding 168 FMSR

5630  879 mt 
(Implemented System) s
gs 5162 672 2028 559 rc
DO
c8
360 0 5234 822 2 MP stroke
SO
gs 5341 749 147 147 rc
  36   36 5414  822 PO
0 sg
  36   36 5414  822 FO
gr

0 sg
gr

5630 1138 mt 
(Commercial Analyzer) s
gs 5162 672 2028 559 rc
24 w
c9
360 0 5234 1079 2 MP stroke
6 w
gr

c9

end %%Color Dict

eplot
%%EndObject

epage
end

showpage

%%Trailer
%%EOF
