Frequency,Impedance,Magnitude,Phase
1.0 , 16161.9836459 , 17021.99 , -69.92
2.0 , 3359.19849817 , 19496.15 , 61.63
3.0 , 3331.68290183 , 19691.82 , 67.51
4.0 , 3326.33427124 , 19795.9 , 71.67
5.0 , 3320.51236405 , 19862.83 , 74.78
6.0 , 3309.13241339 , 19910.75 , 77.2
7.0 , 3302.65032217 , 19939.84 , 79.24
8.0 , 3301.0736879 , 19968.0 , 81.09
9.0 , 3299.86476413 , 19988.78 , 82.71
10.0 , 3298.30641447 , 19998.99 , 84.18
11.0 , 3293.50241492 , 20006.91 , 85.53
12.0 , 3296.11478835 , 20027.12 , 86.81
13.0 , 3296.98417023 , 20038.2 , 88.0
14.0 , 3291.91944349 , 20043.57 , 89.08
15.0 , 3289.05867162 , 20050.07 , -89.85
16.0 , 3289.08364063 , 20059.27 , -88.82
17.0 , 3290.17191959 , 20070.43 , -87.83
18.0 , 3284.32931628 , 20077.72 , -86.88
19.0 , 3283.45231543 , 20075.57 , -85.93
20.0 , 3288.29169816 , 20086.38 , -85.0
21.0 , 3287.4443471 , 20088.8 , -84.12
22.0 , 3284.0131725 , 20087.3 , -83.22
23.0 , 3282.52536882 , 20090.61 , -82.35
24.0 , 3283.24102409 , 20090.44 , -81.5
25.0 , 3282.74204567 , 20098.79 , -80.64
26.0 , 3282.90734373 , 20094.7 , -79.83
27.0 , 3279.52250084 , 20089.25 , -79.0
28.0 , 3284.33067485 , 20100.47 , -78.2
29.0 , 3281.69042122 , 20103.51 , -77.4
30.0 , 3281.55305407 , 20100.91 , -76.6
31.0 , 3281.4990783 , 20098.75 , -75.82
32.0 , 3280.17754137 , 20101.23 , -75.05
33.0 , 3280.72785668 , 20101.21 , -74.27
34.0 , 3279.64715219 , 20097.05 , -73.51
35.0 , 3277.09663621 , 20105.3 , -72.7
36.0 , 3279.97351368 , 20100.94 , -71.99
37.0 , 3279.36761434 , 20099.76 , -71.24
38.0 , 3278.4404703 , 20093.75 , -70.5
39.0 , 3277.69006787 , 20094.27 , -69.76
40.0 , 3278.51382526 , 20091.85 , -69.01
41.0 , 3278.21287397 , 20091.7 , -68.28
42.0 , 3278.39570313 , 20087.18 , -67.56
43.0 , 3277.78292625 , 20092.25 , -66.8
44.0 , 3276.5799218 , 20084.57 , -66.1
45.0 , 3276.44758963 , 20087.15 , -65.39
46.0 , 3276.24820614 , 20082.34 , -64.67
47.0 , 3276.99164945 , 20082.5 , -63.95
48.0 , 3274.64836026 , 20078.22 , -63.24
49.0 , 3273.77055434 , 20079.7 , -62.53
50.0 , 3274.27693313 , 20075.46 , -61.81
51.0 , 3274.68428878 , 20070.24 , -61.1
52.0 , 3275.09326625 , 20067.28 , -60.4
53.0 , 3274.38423316 , 20070.99 , -59.7
54.0 , 3275.07841235 , 20059.34 , -59.0
55.0 , 3274.07621596 , 20061.94 , -58.32
56.0 , 3272.13735503 , 20059.84 , -57.62
57.0 , 3273.89360717 , 20057.93 , -56.91
58.0 , 3273.46454961 , 20054.93 , -56.23
59.0 , 3271.3475659 , 20052.6 , -55.53
60.0 , 3272.78274846 , 20046.44 , -54.85
61.0 , 3272.06808636 , 20042.78 , -54.15
62.0 , 3273.42371034 , 20041.97 , -53.48
63.0 , 3272.59961019 , 20030.08 , -52.83
64.0 , 3271.62966233 , 20026.48 , -52.13
65.0 , 3274.69944428 , 20027.9 , -51.42
66.0 , 3271.82918754 , 20025.94 , -50.76
67.0 , 3271.14116224 , 20021.43 , -50.07
68.0 , 3270.19963147 , 20014.88 , -49.37
69.0 , 3271.57658558 , 20016.04 , -48.7
70.0 , 3270.19836041 , 20013.57 , -47.99
71.0 , 3270.22210225 , 20005.2 , -47.34
72.0 , 3270.50110647 , 20000.54 , -46.6
73.0 , 3270.38567782 , 19997.52 , -45.93
74.0 , 3270.0256394 , 19988.77 , -45.3
75.0 , 3268.73378666 , 19991.26 , -44.54
76.0 , 3268.02176102 , 19982.52 , -43.97
77.0 , 3269.58216977 , 19978.21 , -43.3
78.0 , 3269.64597509 , 19978.82 , -42.62
79.0 , 3269.82492723 , 19969.41 , -41.99
80.0 , 3269.76727926 , 19965.99 , -41.29
81.0 , 3269.09935598 , 19962.16 , -40.61
82.0 , 3269.16574802 , 19956.8 , -39.96
83.0 , 3266.88304477 , 19953.96 , -39.29
84.0 , 3267.70564763 , 19945.89 , -38.62
85.0 , 3265.23676135 , 19952.37 , -37.89
86.0 , 3266.93334604 , 19936.55 , -37.3
87.0 , 3268.58041549 , 19930.55 , -36.65
88.0 , 3266.91914992 , 19927.13 , -35.96
89.0 , 3266.59674237 , 19920.59 , -35.31
90.0 , 3265.69738563 , 19918.75 , -34.65
91.0 , 3267.4559838 , 19914.26 , -33.97
92.0 , 3265.55089939 , 19906.72 , -33.3
93.0 , 3265.47903337 , 19899.24 , -32.65
94.0 , 3266.89346552 , 19897.22 , -31.99
95.0 , 3265.04977383 , 19891.98 , -31.32
96.0 , 3264.45950166 , 19887.11 , -30.65
97.0 , 3265.35721615 , 19880.96 , -29.99
98.0 , 3266.75518463 , 19873.18 , -29.36
99.0 , 3266.41932073 , 19867.99 , -28.68
100.0 , 3264.32028811 , 19859.37 , -28.0
