Test1
Conductivity - 183.2 uS/m
Frequency(kHz),Impedance(kOhm),Magnitude,Phase 
10.00,94.86,20403.83,-80.72
15.00,94.76,20424.45,-76.94
20.00,94.87,20400.46,-72.67
25.00,95.05,20363.67,-65.73
30.00,95.14,20344.19,-61.03
35.00,95.17,20336.46,-56.92
40.00,95.15,20340.94,-55.97
45.00,95.28,20313.08,-50.50
50.00,95.43,20280.97,-46.77
55.00,95.50,20267.28,-43.90
60.00,95.63,20240.05,-39.02
65.00,95.73,20217.72,-34.48
70.00,95.86,20190.47,-31.35
75.00,95.98,20165.45,-27.52
80.00,96.13,20132.94,-22.70
85.00,96.17,20126.54,-21.27
90.00,96.42,20073.89,-14.82
95.00,96.58,20041.11,-11.31
100.00,96.73,20008.61,-10.06
105.00,97.25,19901.74,-3.53
110.00,97.14,19925.02,-0.07
115.00,97.21,19910.01,1.00
120.00,97.64,19823.25,4.28
125.00,97.85,19780.19,6.00
130.00,97.86,19778.10,12.33
135.00,98.21,19706.56,9.33
140.00,98.27,19695.05,18.58
145.00,98.54,19640.66,22.42
150.00,98.84,19582.80,19.57
155.00,99.09,19532.68,23.73
160.00,99.23,19505.58,32.35
165.00,99.63,19427.20,34.69
170.00,99.88,19378.27,35.46
175.00,101.23,19118.67,39.00
180.00,100.45,19268.85,45.26
185.00,100.76,19207.85,48.55
190.00,100.94,19174.60,51.82
195.00,101.33,19100.17,53.87
200.00,101.56,19058.21,57.40
205.00,101.94,18985.57,60.83
210.00,102.26,18927.31,64.29
215.00,102.66,18853.78,67.71
220.00,102.98,18793.89,71.16
225.00,103.39,18720.73,74.81
230.00,103.75,18655.05,78.20
235.00,104.14,18584.50,81.62
240.00,104.39,18540.20,84.74
245.00,104.85,18459.91,87.94
250.00,105.36,18369.47,-88.74
255.00,105.75,18302.78,-85.61
260.00,106.24,18217.41,-82.30
265.00,106.66,18146.20,-79.14
270.00,107.09,18074.02,-75.87
275.00,107.52,18001.32,-72.65
280.00,107.93,17932.94,-69.39
285.00,108.50,17837.73,-66.14
290.00,109.00,17756.93,-63.10
295.00,109.53,17670.01,-59.87
300.00,109.93,17606.85,-56.51
305.00,110.20,17562.82,-53.42
310.00,111.06,17428.01,-50.26
315.00,111.47,17363.47,-47.35
320.00,112.06,17271.82,-44.10
325.00,112.72,17170.61,-41.15
330.00,113.26,17088.79,-37.94
335.00,113.78,17010.94,-34.81
340.00,114.38,16921.02,-31.68
345.00,114.98,16833.02,-28.42
350.00,115.64,16736.83,-25.57
355.00,116.13,16666.89,-22.40
360.00,116.83,16566.63,-19.39
365.00,117.37,16491.05,-16.45
370.00,117.87,16420.76,-13.31
375.00,118.71,16303.63,-10.36
380.00,119.37,16213.83,-7.17
385.00,120.15,16108.84,-4.18
390.00,120.70,16035.59,-1.03
395.00,121.40,15942.52,2.08
400.00,122.10,15852.19,5.12
405.00,122.76,15766.80,7.88
410.00,123.48,15674.57,11.03
415.00,124.35,15565.23,13.95
420.00,124.91,15494.86,17.27
425.00,125.61,15409.00,20.14
430.00,126.45,15305.87,23.17
435.00,127.35,15198.49,26.16
440.00,128.11,15107.65,29.24
445.00,128.84,15022.51,32.08
450.00,129.68,14924.42,35.16
455.00,130.61,14819.24,38.17
460.00,131.40,14729.57,41.04
465.00,132.19,14641.66,43.96
470.00,132.70,14585.14,46.99
475.00,133.70,14476.75,50.17
480.00,134.38,14402.81,53.19
485.00,135.40,14294.63,56.27
490.00,136.27,14203.37,59.15
495.00,137.24,14102.48,61.98
500.00,138.33,13991.78,65.06
505.00,139.00,13923.96,67.93
510.00,139.88,13836.94,70.99