Frequency,Magnitude,Resistance,Reactance
1.0 , 17695.33 , -17319.0 , 3630.0
2.0 , 2510.19 , 226.0 , 2500.0
3.0 , 2512.54 , 52.0 , 2512.0
4.0 , 2525.74 , -61.0 , 2525.0
5.0 , 2531.89 , -121.0 , 2529.0
6.0 , 2530.16 , -145.0 , 2526.0
7.0 , 2524.73 , -170.0 , 2519.0
8.0 , 2534.14 , -215.0 , 2525.0
9.0 , 2535.16 , -248.0 , 2523.0
10.0 , 2532.76 , -273.0 , 2518.0
11.0 , 2528.74 , -299.0 , 2511.0
12.0 , 2538.34 , -336.0 , 2516.0
13.0 , 2538.67 , -367.0 , 2512.0
14.0 , 2532.21 , -390.0 , 2502.0
15.0 , 2533.72 , -418.0 , 2499.0
16.0 , 2533.47 , -451.0 , 2493.0
17.0 , 2536.07 , -476.0 , 2491.0
18.0 , 2529.32 , -502.0 , 2479.0
19.0 , 2529.37 , -531.0 , 2473.0
20.0 , 2539.29 , -559.0 , 2477.0
21.0 , 2536.85 , -587.0 , 2468.0
22.0 , 2533.77 , -615.0 , 2458.0
23.0 , 2532.47 , -641.0 , 2450.0
24.0 , 2536.54 , -668.0 , 2447.0
25.0 , 2532.93 , -694.0 , 2436.0
26.0 , 2531.83 , -721.0 , 2427.0
27.0 , 2530.69 , -750.0 , 2417.0
28.0 , 2534.1 , -774.0 , 2413.0
29.0 , 2532.98 , -801.0 , 2403.0
30.0 , 2528.71 , -826.0 , 2390.0
31.0 , 2529.18 , -853.0 , 2381.0
32.0 , 2528.93 , -877.0 , 2372.0
33.0 , 2529.44 , -905.0 , 2362.0
34.0 , 2524.54 , -930.0 , 2347.0
35.0 , 2524.81 , -958.0 , 2336.0
36.0 , 2527.85 , -978.0 , 2331.0
37.0 , 2523.1 , -1008.0 , 2313.0
38.0 , 2522.43 , -1029.0 , 2303.0
39.0 , 2522.24 , -1055.0 , 2291.0
40.0 , 2522.43 , -1079.0 , 2280.0
41.0 , 2523.3 , -1106.0 , 2268.0
42.0 , 2521.39 , -1132.0 , 2253.0
43.0 , 2521.13 , -1155.0 , 2241.0
44.0 , 2518.02 , -1177.0 , 2226.0
45.0 , 2519.17 , -1200.0 , 2215.0
46.0 , 2517.19 , -1225.0 , 2199.0
47.0 , 2517.16 , -1248.0 , 2186.0
48.0 , 2514.47 , -1272.0 , 2169.0
49.0 , 2516.57 , -1298.0 , 2156.0
50.0 , 2516.39 , -1319.0 , 2143.0
51.0 , 2514.35 , -1344.0 , 2125.0
52.0 , 2511.9 , -1366.0 , 2108.0
53.0 , 2510.85 , -1390.0 , 2091.0
54.0 , 2510.92 , -1408.0 , 2079.0
55.0 , 2509.4 , -1433.0 , 2060.0
56.0 , 2510.03 , -1454.0 , 2046.0
57.0 , 2509.07 , -1476.0 , 2029.0
58.0 , 2507.21 , -1500.0 , 2009.0
59.0 , 2505.46 , -1517.0 , 1994.0
60.0 , 2503.83 , -1539.0 , 1975.0
61.0 , 2506.44 , -1561.0 , 1961.0
62.0 , 2504.04 , -1582.0 , 1941.0
63.0 , 2502.99 , -1601.0 , 1924.0
64.0 , 2499.92 , -1620.0 , 1904.0
65.0 , 2502.99 , -1641.0 , 1890.0
66.0 , 2500.42 , -1661.0 , 1869.0
67.0 , 2496.02 , -1680.0 , 1846.0
68.0 , 2496.37 , -1699.0 , 1829.0
69.0 , 2496.93 , -1719.0 , 1811.0
70.0 , 2495.66 , -1738.0 , 1791.0
71.0 , 2493.28 , -1755.0 , 1771.0
72.0 , 2495.44 , -1777.0 , 1752.0
73.0 , 2493.62 , -1793.0 , 1733.0
74.0 , 2494.22 , -1812.0 , 1714.0
75.0 , 2489.57 , -1829.0 , 1689.0
76.0 , 2487.29 , -1846.0 , 1667.0
77.0 , 2487.3 , -1863.0 , 1648.0
78.0 , 2489.09 , -1882.0 , 1629.0
79.0 , 2487.05 , -1899.0 , 1606.0
80.0 , 2484.31 , -1913.0 , 1585.0
81.0 , 2484.0 , -1929.0 , 1565.0
82.0 , 2483.5 , -1946.0 , 1543.0
83.0 , 2480.5 , -1961.0 , 1519.0
84.0 , 2482.02 , -1979.0 , 1498.0
85.0 , 2478.65 , -1992.0 , 1475.0
86.0 , 2479.01 , -2010.0 , 1451.0
87.0 , 2476.91 , -2021.0 , 1432.0
88.0 , 2475.43 , -2036.0 , 1408.0
89.0 , 2473.45 , -2050.0 , 1384.0
90.0 , 2476.49 , -2067.0 , 1364.0
91.0 , 2473.18 , -2080.0 , 1338.0
92.0 , 2472.03 , -2092.0 , 1317.0
93.0 , 2471.58 , -2107.0 , 1292.0
94.0 , 2471.3 , -2120.0 , 1270.0
95.0 , 2468.75 , -2133.0 , 1243.0
96.0 , 2466.93 , -2143.0 , 1222.0
97.0 , 2466.0 , -2156.0 , 1197.0
98.0 , 2466.89 , -2168.0 , 1177.0
99.0 , 2464.26 , -2180.0 , 1149.0
100.0 , 2460.28 , -2188.0 , 1125.0
