Frequency,Magnitude,Resistance,Reactance
1.0 , 17565.95 , -17253.0 , 3301.0
2.0 , 2187.44 , 233.0 , 2175.0
3.0 , 2187.88 , 62.0 , 2187.0
4.0 , 2198.5 , -47.0 , 2198.0
5.0 , 2205.27 , -100.0 , 2203.0
6.0 , 2203.44 , -123.0 , 2200.0
7.0 , 2199.65 , -143.0 , 2195.0
8.0 , 2209.76 , -185.0 , 2202.0
9.0 , 2209.2 , -212.0 , 2199.0
10.0 , 2206.76 , -237.0 , 2194.0
11.0 , 2203.16 , -258.0 , 2188.0
12.0 , 2212.35 , -292.0 , 2193.0
13.0 , 2213.11 , -319.0 , 2190.0
14.0 , 2208.33 , -340.0 , 2182.0
15.0 , 2206.89 , -362.0 , 2177.0
16.0 , 2207.54 , -389.0 , 2173.0
17.0 , 2208.77 , -412.0 , 2170.0
18.0 , 2207.88 , -438.0 , 2164.0
19.0 , 2203.34 , -459.0 , 2155.0
20.0 , 2213.24 , -487.0 , 2159.0
21.0 , 2211.84 , -511.0 , 2152.0
22.0 , 2208.77 , -535.0 , 2143.0
23.0 , 2205.75 , -558.0 , 2134.0
24.0 , 2210.98 , -582.0 , 2133.0
25.0 , 2207.8 , -606.0 , 2123.0
26.0 , 2206.94 , -627.0 , 2116.0
27.0 , 2204.91 , -653.0 , 2106.0
28.0 , 2208.37 , -674.0 , 2103.0
29.0 , 2206.95 , -697.0 , 2094.0
30.0 , 2204.22 , -718.0 , 2084.0
31.0 , 2203.68 , -742.0 , 2075.0
32.0 , 2206.59 , -767.0 , 2069.0
33.0 , 2203.35 , -787.0 , 2058.0
34.0 , 2203.29 , -810.0 , 2049.0
35.0 , 2204.44 , -833.0 , 2041.0
36.0 , 2203.39 , -852.0 , 2032.0
37.0 , 2200.21 , -879.0 , 2017.0
38.0 , 2199.75 , -896.0 , 2009.0
39.0 , 2198.8 , -918.0 , 1998.0
40.0 , 2199.51 , -939.0 , 1989.0
41.0 , 2198.19 , -961.0 , 1977.0
42.0 , 2198.5 , -986.0 , 1965.0
43.0 , 2194.64 , -1005.0 , 1951.0
44.0 , 2195.85 , -1023.0 , 1943.0
45.0 , 2194.75 , -1045.0 , 1930.0
46.0 , 2193.84 , -1065.0 , 1918.0
47.0 , 2194.3 , -1089.0 , 1905.0
48.0 , 2193.42 , -1108.0 , 1893.0
49.0 , 2191.92 , -1127.0 , 1880.0
50.0 , 2192.76 , -1150.0 , 1867.0
51.0 , 2192.31 , -1170.0 , 1854.0
52.0 , 2189.9 , -1189.0 , 1839.0
53.0 , 2189.15 , -1206.0 , 1827.0
54.0 , 2190.03 , -1230.0 , 1812.0
55.0 , 2190.32 , -1248.0 , 1800.0
56.0 , 2184.19 , -1263.0 , 1782.0
57.0 , 2188.44 , -1287.0 , 1770.0
58.0 , 2185.62 , -1304.0 , 1754.0
59.0 , 2185.24 , -1322.0 , 1740.0
60.0 , 2184.31 , -1340.0 , 1725.0
61.0 , 2181.45 , -1357.0 , 1708.0
62.0 , 2185.25 , -1378.0 , 1696.0
63.0 , 2182.13 , -1395.0 , 1678.0
64.0 , 2179.3 , -1412.0 , 1660.0
65.0 , 2184.75 , -1432.0 , 1650.0
66.0 , 2181.02 , -1448.0 , 1631.0
67.0 , 2180.47 , -1465.0 , 1615.0
68.0 , 2177.34 , -1480.0 , 1597.0
69.0 , 2177.97 , -1498.0 , 1581.0
70.0 , 2175.35 , -1513.0 , 1563.0
71.0 , 2175.81 , -1529.0 , 1548.0
72.0 , 2175.79 , -1545.0 , 1532.0
73.0 , 2174.65 , -1563.0 , 1512.0
74.0 , 2172.4 , -1579.0 , 1492.0
75.0 , 2170.33 , -1593.0 , 1474.0
76.0 , 2172.74 , -1610.0 , 1459.0
77.0 , 2169.73 , -1623.0 , 1440.0
78.0 , 2169.79 , -1638.0 , 1423.0
79.0 , 2166.08 , -1652.0 , 1401.0
80.0 , 2167.28 , -1667.0 , 1385.0
81.0 , 2164.49 , -1679.0 , 1366.0
82.0 , 2166.29 , -1695.0 , 1349.0
83.0 , 2163.09 , -1709.0 , 1326.0
84.0 , 2163.05 , -1722.0 , 1309.0
85.0 , 2161.42 , -1735.0 , 1289.0
86.0 , 2160.65 , -1748.0 , 1270.0
87.0 , 2162.33 , -1763.0 , 1252.0
88.0 , 2159.84 , -1774.0 , 1232.0
89.0 , 2159.24 , -1787.0 , 1212.0
90.0 , 2157.79 , -1798.0 , 1193.0
91.0 , 2156.91 , -1812.0 , 1170.0
92.0 , 2155.95 , -1823.0 , 1151.0
93.0 , 2156.07 , -1835.0 , 1132.0
94.0 , 2155.4 , -1847.0 , 1111.0
95.0 , 2154.63 , -1858.0 , 1091.0
96.0 , 2151.75 , -1868.0 , 1068.0
97.0 , 2152.37 , -1880.0 , 1048.0
98.0 , 2151.08 , -1889.0 , 1029.0
99.0 , 2149.95 , -1899.0 , 1008.0
100.0 , 2148.14 , -1909.0 , 985.0
